module github.com/Budi721/ultimateservicego

go 1.19

require (
	github.com/ardanlabs/conf v1.5.0
	github.com/ardanlabs/darwin v1.3.0
	github.com/dimfeld/httptreemux/v5 v5.4.0
	github.com/go-playground/locales v0.14.0
	github.com/go-playground/universal-translator v0.18.0
	github.com/go-playground/validator/v10 v10.11.1
	github.com/golang-jwt/jwt/v4 v4.4.2
	github.com/google/uuid v1.3.0
	github.com/jmoiron/sqlx v1.3.5
	github.com/lib/pq v1.10.7
	go.uber.org/automaxprocs v1.5.1
	go.uber.org/zap v1.23.0
	golang.org/x/crypto v0.0.0-20211215153901-e495a2d5b3d3
)

require (
	github.com/leodido/go-urn v1.2.1 // indirect
	go.uber.org/atomic v1.10.0 // indirect
	go.uber.org/multierr v1.8.0 // indirect
	golang.org/x/sys v0.0.0-20210806184541-e5e7981a1069 // indirect
	golang.org/x/text v0.3.7 // indirect
)
